1.751853214073181277e+02
2.484618888854980412e+01
1.801098233222961298e+01
1.630046636581420927e+01
1.509476444244384830e+01
1.403505806922912669e+01
1.310298556327819774e+01
1.232717855453491218e+01
1.167398631095886152e+01
1.109777215003967221e+01
1.065219007492065373e+01
1.023642289161682051e+01
9.871006336212158061e+00
9.696875314712524840e+00
9.453291330337524556e+00
9.095407924652100462e+00
9.018231544494629048e+00
8.799033083915709597e+00
8.665219888687133221e+00
8.614598588943481516e+00
8.496631374359131073e+00
8.418663377761840039e+00
8.249602036476135325e+00
8.237891945838928365e+00
8.139088783264160298e+00
8.074205908775329732e+00
8.059728384017944336e+00
7.978998966217041300e+00
7.951508235931396662e+00
7.624590387344360565e+00
7.552530617713927974e+00
7.583646779060363663e+00
7.476399321556090882e+00
7.468002619743347559e+00
7.415263128280639826e+00
7.396483187675475968e+00
7.359094467163085795e+00
7.352765421867371032e+00
7.260019917488097718e+00
7.130794873237610076e+00
7.099476890563964915e+00
7.019343667030334188e+00
7.019206237792968928e+00
6.941860227584839116e+00
6.884238181114196387e+00
6.990081515312194682e+00
6.850325465202331543e+00
6.810000252723694025e+00
6.805143976211548207e+00
6.753424477577209650e+00
